/home/kaze/MyDevelop/Java/HibernateCrud/src/main/java/com/jcg/hibernate/crud/operations/Student.java
/home/kaze/MyDevelop/Java/HibernateCrud/src/main/java/com/jcg/hibernate/crud/operations/DbOperations.java
/home/kaze/MyDevelop/Java/HibernateCrud/src/main/java/com/jcg/hibernate/crud/operations/AppMain.java
