<?xml version="1.0" encoding="UTF-8"?>
<session version="1.0">
<refactoring clone="true" comment="Infer generic type arguments on &apos;json&apos;&#x0A;- Original project: &apos;json&apos;&#x0A;- Original elements:&#x0A;     json.JsonUtils.java&#x0A;- Assume clone() returns an instance of the receiver type&#x0A;- Leave unconstrained type arguments raw" description="Infer generic type arguments" element1="/src\/main\/java=/optional=/true=/=/maven.pomderived=/true=/&lt;json{JsonUtils.java" flags="6" id="org.eclipse.jdt.ui.infer.typearguments" leave="true" stamp="1600901823415" version="1.0"/>
</session>