INDEX VERSION 1.4+/home/kaze/eclipse-workspace/.metadata/.plugins/org.eclipse.wst.jsdt.core/indexes
61124512.index
1732315486.index
1168977076.index
4083230032.index
1962236967.index
1015765542.index
3808923513.index
3275606801.index
